Hall of Fame WAR
…
Cumulative WAR

Now we start calculating a running total of WAR for each year.

Data is already sorted by age/year, so after we group by name, the cumsum function works as expected. The final filter gets rid of outliers like position players who pitched a few times or pitchers who made the HOF for non pitching reasons. Then we plot a quick look at WAR curves by age, highlighting WARs over 100.

HOF_with_names_and_war_cumsummed <- HOF_with_names_and_war %>% 
  group_by(name_common.x) %>% summarise(cumWAR = cumsum(WAR), year_ID, age, sumWAR = sum(WAR)) %>% filter(sumWAR >10)
HOF_with_names_and_war_cumsummed

## # A tibble: 1,295 x 5
## # Groups:   name_common.x [72]
##    name_common.x cumWAR year_ID   age sumWAR
##    <chr>          <dbl>   <dbl> <dbl>  <dbl>
##  1 Addie Joss      4.27    1902    22   47.7
##  2 Addie Joss      8.74    1903    23   47.7
##  3 Addie Joss     13.7     1904    24   47.7
##  4 Addie Joss     19.9     1905    25   47.7
##  5 Addie Joss     24.5     1906    26   47.7
##  6 Addie Joss     31.4     1907    27   47.7
##  7 Addie Joss     40.0     1908    28   47.7
##  8 Addie Joss     45.4     1909    29   47.7
##  9 Addie Joss     47.7     1910    30   47.7
## 10 Amos Rusie     -0.48    1889    18   65.2
## #  with 1,285 more rows
…
